{
    "id": 1,
    "createdTime": 1,
    "goodsDetailId": 1,
    "goodsId": 1,
    "hotSaleId": 1,
    "hotSalePrice": 1,
    "activityType": 1,
    "status": 1
}
    注释
{
    "id": "id",
    "createdTime": "创建时间",
    "goodsDetailId": "商品明细ID",
    "goodsId": "商品id",
    "hotSaleId": "活动id",
    "hotSalePrice": "活动价格",
    "activityType": "0 热门推荐 1 限时折扣 2 类目品牌",
    "status": "0 上架 1 下架"
}
